#,00:13.73,00:16.78
707,phrase_1,0,Der Schnee glänzt weiß auf den Bergen heut Nacht,The snow shines white on the mountains tonight
708,word,0,Der,The
709,word,0,Schnee,snow
710,word,0,glänzt,shines
711,word,0,weiß,White
669,word,0,auf,on
684,word,0,den,the
712,word,0,Bergen,mountain
713,word,0,heut,today
714,word,0,Nacht,night
707,phrase_2,0,Der Schnee glänzt weiß auf den Bergen heut Nacht,The snow shines white on the mountains tonight
#,00:16.78,00:20.46
715,phrase_1,0,keine Spuren sind zu sehen,no traces can be seen
716,word,0,keine,none
717,word,0,Spuren,traces
696,word,0,sind,are
254,word,0,zu,to
394,word,0,sehen,to see
715,phrase_2,0,keine Spuren sind zu sehen,no traces can be seen
#,00:16.78,00:27.49
718,phrase_1,0,Ein einsames Königreich  und ich bin die Königin,A lonely kingdom and I am the queen
719,word,0,Ein,On
720,word,0,einsames,lonely
721,word,0,Königreich,kingdom
633,word,0,und,and
722,word,0,ich,I
723,word,0,bin,am
624,word,0,die,the
724,word,0,Königin,queen
718,phrase_2,0,Ein einsames Königreich  und ich bin die Königin,A lonely kingdom and I am the queen
#,00:20.46,00:34.31
725,phrase_1,0,Der Wind er heult so wie der Sturm ganz tief in mir,The wind howls like the storm deep inside me
726,word,0,Wind,wind
727,word,0,er,he
728,word,0,heult,howls
729,word,0,so,so
5,word,0,wie,how
730,word,0,Sturm,Storm
87,word,0,ganz,quite
731,word,0,tief,deep
651,word,0,in,in
616,word,0,mir,me
725,phrase_2,0,Der Wind er heult so wie der Sturm ganz tief in mir,The wind howls like the storm deep inside me
#,00:27.49,00:41.24
732,phrase_1,0,Mich zu kontrollieren ich hab es versucht,To control myself I tried
733,word,0,Mich,Me
734,word,0,kontrollieren,check
735,word,0,hab,hab
681,word,0,es,it
736,word,0,versucht,tries
732,phrase_2,0,Mich zu kontrollieren ich hab es versucht,To control myself I tried
#,00:34.31,00:44.28
737,phrase_1,0,Lass sie nicht rein lass sie nicht sehn,Do not let her in. Do not let her see you
738,word,0,Lass,let
621,word,0,sie,you
137,word,0,nicht,not
739,word,0,rein,purely
740,word,0,sehn,see
737,phrase_2,0,Lass sie nicht rein lass sie nicht sehn,Do not let her in. Do not let her see you
#,00:41.24,00:47.65
741,phrase_1,0,Wie du bist Nein das darf niemals geschehn,As you are no that must never happen
649,word,0,du,you
742,word,0,bist,are
743,word,0,Nein,No
3,word,0,das,that
744,word,0,darf,may
689,word,0,niemals,No way
745,word,0,geschehn,happened
741,phrase_2,0,Wie du bist Nein das darf niemals geschehn,As you are no that must never happen
#,00:44.28,00:49.49
746,phrase_1,0,Du darfst nichts fühln,You can not feel anything
747,word,0,darfst,allowed to
63,word,0,nichts,nothing
748,word,0,fühln,fühln
746,phrase_2,0,Du darfst nichts fühln,You can not feel anything
#,00:47.65,00:57.08
749,phrase_1,0,zeig ihnen nicht dein wahres Ich,do not show them your true self
750,word,0,zeig,show
751,word,0,ihnen,them
663,word,0,dein,your
752,word,0,wahres,real
749,phrase_2,0,zeig ihnen nicht dein wahres Ich,do not show them your true self
#,00:49.49,01:00.27
753,phrase_1,0,Ich lass los lass jetzt los,"I let go, let go now"
754,word,0,los,Come on
32,word,0,jetzt,now
753,phrase_2,0,Ich lass los lass jetzt los,"I let go, let go now"
#,00:57.08,01:07.13
755,phrase_1,0,Die Kraft sie ist grenzenlos,The power is limitless
756,word,0,Kraft,force
665,word,0,ist,is
757,word,0,grenzenlos,limitless
755,phrase_2,0,Die Kraft sie ist grenzenlos,The power is limitless
#,01:00.27,01:11.17
758,phrase_1,0,und ich schlag die Türen zu,and I close the doors
759,word,0,schlag,blow
760,word,0,Türen,doors
758,phrase_2,0,und ich schlag die Türen zu,and I close the doors
#,01:07.13,01:17.29
761,phrase_1,0,Es ist Zeit nun bin ich bereit ,"It's time, now I am ready"
762,word,0,Zeit,Time
763,word,0,nun,now
764,word,0,bereit,ready
761,phrase_2,0,Es ist Zeit nun bin ich bereit ,"It's time, now I am ready"
#,01:11.17,01:21.12
765,phrase_1,0,und ein Sturm zieht auf,and a storm is coming up
766,word,0,zieht,attracts
765,phrase_2,0,und ein Sturm zieht auf,and a storm is coming up
#,01:17.29,01:28.70
767,phrase_1,0,Die Kälte sie ist nun ein Teil von mir,The cold she is now a part of me
768,word,0,Kälte,cold
769,word,0,Teil,part
541,word,0,von,of
767,phrase_2,0,Die Kälte sie ist nun ein Teil von mir,The cold she is now a part of me
#,01:21.12,01:34.16
770,phrase_1,0,Es ist schon eigenartig wie klein jetzt alles scheint,It is strange how small everything seems now
229,word,0,schon,already
771,word,0,eigenartig,peculiarly
233,word,0,klein,small
308,word,0,alles,all
772,word,0,scheint,seems
770,phrase_2,0,Es ist schon eigenartig wie klein jetzt alles scheint,It is strange how small everything seems now
#,01:28.70,01:37.57
773,phrase_1,0,Und die Ängste die in mir waren,And the fears that were in me
774,word,0,Ängste,fears
775,word,0,waren,were
773,phrase_2,0,Und die Ängste die in mir waren,And the fears that were in me
#,01:34.16,01:41.69
776,phrase_1,0,kommen nicht mehr an mich ran,do not come to me anymore
15,word,0,kommen,to come
777,word,0,mehr,more
778,word,0,an,on
779,word,0,ran,ran
776,phrase_2,0,kommen nicht mehr an mich ran,do not come to me anymore
#,01:37.57,01:44.91
780,phrase_1,0,Was ich wohl alles machen kann,What I can do everything
781,word,0,Was,What
782,word,0,wohl,well
113,word,0,machen,to make
783,word,0,kann,can
780,phrase_2,0,Was ich wohl alles machen kann,What I can do everything
#,01:41.69,01:48.33
784,phrase_1,0,Die Kraft in mir treibt mich voran,The power in me drives me forward
785,word,0,treibt,drives
786,word,0,voran,Ahead
784,phrase_2,0,Die Kraft in mir treibt mich voran,The power in me drives me forward
#,01:44.91,01:52.56
787,phrase_1,0,Was hinter mir liegt ist vorbei,What lies behind me is over
788,word,0,hinter,Behind
789,word,0,liegt,lies
790,word,0,vorbei,past
787,phrase_2,0,Was hinter mir liegt ist vorbei,What lies behind me is over
#,01:48.33,01:59.27
791,phrase_1,0,Endlich frei,Free at last
792,word,0,Endlich,Finally
793,word,0,frei,free
791,phrase_2,0,Endlich frei,Free at last
#,01:52.56,02:02.62
794,phrase_1,0,Nun bin ich endlich so weit,Now I am finally ready
475,word,0,weit,far
794,phrase_2,0,Nun bin ich endlich so weit,Now I am finally ready
#,01:59.27,02:05.98
795,phrase_1,0,Ich lass los lass jetzt los ,"I let go, let go now"
795,phrase_2,0,Ich lass los lass jetzt los ,"I let go, let go now"
#,02:02.62,02:09.94
796,phrase_1,0,Doch Tränen seht ihr nicht,But you do not see tears
797,word,0,Doch,But
798,word,0,Tränen,tears
799,word,0,seht,look
800,word,0,ihr,their
796,phrase_2,0,Doch Tränen seht ihr nicht,But you do not see tears
#,02:05.98,02:12.88
801,phrase_1,0,Hier bin ich,Here I am
802,word,0,Hier,Here
801,phrase_2,0,Hier bin ich,Here I am
#,02:09.94,02:16.24
803,phrase_1,0,Und bleibe hier,And stay here
804,word,0,bleibe,stay
803,phrase_2,0,Und bleibe hier,And stay here
#,02:12.88,02:27.06
805,phrase_1,0,Und ein Sturm zieht auf,And a storm is coming up
805,phrase_2,0,Und ein Sturm zieht auf,And a storm is coming up
#,02:16.24,02:29.66
806,phrase_1,0,Ich spüre diese Kraft,I feel this power
807,word,0,spüre,feel
641,word,0,diese,these
806,phrase_2,0,Ich spüre diese Kraft,I feel this power
#,02:27.06,02:33.65
808,phrase_1,0,sie ist ein Teil von mir,She's a part of me
808,phrase_2,0,sie ist ein Teil von mir,She's a part of me
#,02:29.66,02:40.42
809,phrase_1,0,Sie fließt in meine Seele und in all die Schönheit hier,It flows into my soul and into all the beauty here
810,word,0,fließt,flows
554,word,0,meine,my
811,word,0,Seele,soul
812,word,0,all,Alles
813,word,0,Schönheit,beauty
809,phrase_2,0,Sie fließt in meine Seele und in all die Schönheit hier,It flows into my soul and into all the beauty here
#,02:33.65,02:47.10
814,phrase_1,0,Nur ein Gedanke und die Welt wird ganz aus Eis,Just a thought and the world is completely made of ice
815,word,0,Nur,Just
816,word,0,Gedanke,thought
661,word,0,Welt,world
817,word,0,wird,becomes
17,word,0,aus,from
818,word,0,Eis,ice
814,phrase_2,0,Nur ein Gedanke und die Welt wird ganz aus Eis,Just a thought and the world is completely made of ice
#,02:40.42,02:54.84
819,phrase_1,0,Ich geh nie mehr zurück das ist Vergangenheit,I never go back that's past
820,word,0,geh,go
498,word,0,nie,never
821,word,0,zurück,back
822,word,0,Vergangenheit,past
819,phrase_2,0,Ich geh nie mehr zurück das ist Vergangenheit,I never go back that's past
#,02:47.10,02:58.09
823,phrase_1,0,Ich bin frei endlich frei,I'm free at last free
823,phrase_2,0,Ich bin frei endlich frei,I'm free at last free
#,02:54.84,03:04.77
824,phrase_1,0,Und ich fühl mich wie neu geboren,And I feel like I was born again
825,word,0,fühl,feeling
231,word,0,neu,new
826,word,0,geboren,born
824,phrase_2,0,Und ich fühl mich wie neu geboren,And I feel like I was born again
#,02:58.09,03:11.69
827,phrase_1,0,Was war ist jetzt vorbei,What was over now?
597,word,0,war,was
827,phrase_2,0,Was war ist jetzt vorbei,What was over now?
#,03:04.77,03:11.69
828,phrase_1,0,in dem hellen Licht,in the bright light
829,word,0,dem,the
830,word,0,hellen,bright
831,word,0,Licht,light
828,phrase_2,0,in dem hellen Licht,in the bright light
