ausschlafen,to sleep in,verb,lesson08
der Bäcker,backer,noun,lesson08
freihaben,to have time off,,lesson08
halb,half,,lesson08
holen,to fetch,,lesson08
können,can,verb,lesson08
der Mittag,midday,noun,lesson08
der Nachmittag,afternoon,noun,lesson08
ruhig,quiet,,lesson08
spät,late,,lesson08
der Termin,appointment,,lesson08
das Viertel,quarter,,lesson08
von... bis...,from... to...,,lesson08
vor,to,,lesson08
der Vormittag,late morning,,lesson08
vormittags,in the late morning,,lesson08
abholen,to pick up,,lesson08
die Bäckerei,bakery,noun,lesson08
der Besuch,visit,noun,lesson08
das Getränk,drink,noun,lesson08
Lust haben,to feel like doing something,phrase,lesson08
der Monat,month,noun,lesson08
telefonieren,to make a phone call,verb,lesson08
tun,to do,verb,lesson08
viele,many,,lesson08
wenig,little,,lesson08
das Bett,bed,noun,lesson08
bleiben,to stay,verb,lesson08
der Freitagabend,Friday evening,,lesson08
früh,early,,lesson08
mehr,more,,lesson08
zwischen,between,,lesson08
bezahlen,to pay for,verb,lesson08
die Birne,pear,noun,lesson08
verkaufen,to sell,verb,lesson08

die S-Bahn,city train,noun,lesson09
die U-Bahn,subway train,noun,lesson09
der Bus,bus,noun,lesson09
dauern,to last,,lesson09
das Fahrrad,bicycle,noun,lesson09
die Fahrt,journey,noun,lesson09
fliegen,to fly,verb,lesson09
das Flugzeug,plane,noun,lesson09
zu Fuss,on foot,,lesson09
meistens,mostly,,lesson09
die Strassenbahn,tram,noun,lesson09
die Universität,university,noun,lesson09
unterschreiben,to sign,verb,lesson09
wohin,where to,,lesson09
der Zug,train,noun,lesson09
auspacken,to unpack,verb,lesson09
aussteigen,to get off,verb,lesson09
einsteigen,to get on,verb,lesson09
packen,to pack,verb,lesson09
die Richtung,direction,noun,lesson09
die Schule,school,noun,lesson09
seit,since,,lesson09
die Station,station,noun,lesson09
umsteigen,to change trains,verb,lesson09
der Urlaub,vacation,noun,lesson09
zum Beispiel,for example,phrase,lesson09
der Durchschnitt,average,noun,lesson09
jung,young,,lesson09
der Mensch,person,noun,lesson09
das Mitglied,member,noun,lesson09
der Radfahrer,cyclist,noun,lesson09
der Weg,way,noun,lesson09

allein,alone,,lesson10
einfach,simple,,lesson10
fertig,complete,,lesson10
gestern,yesterday,,lesson10
die Grafik,graphics,noun,lesson10
kennenlernen,to get to know,verb,lesson10
kopieren,to copy,verb,lesson10
neugierig,curious,,lesson10
gar nicht,not at all,,lesson10
das Praktikum,internship,,lesson10
präsentieren,to present,verb,lesson10
Spass machen,have fun,phrase,lesson10
zusammenarbeiten,to work together,phrase,lesson10
die Fehler,mistake,noun,lesson10
krank,sick,,lesson10
passieren,to happen,verb,lesson10
die Reise,trip,noun,lesson10
die Verspätung,delay,noun,lesson10
voll,full,,lesson10
das Zimmer,room,noun,lesson10
die Briefmarke,stamp,noun,lesson10
erfolgreich,successful,,lesson10
der Redakteur,editor,,lesson10
sammeln,to collect,verb,lesson10
zurück,back,,lesson10
die Ampel,traffic light,noun,lesson10
der Autofahrer,car driver,noun,lesson10
eilig,in a hurry,,lesson10
der Fussgänger,pedestrian,noun,lesson10
die Haltestelle,station,noun,lesson10
der Lkw,lorry,noun,lesson10
der Stau,traffic jam,noun,lesson10

anbieten,to offer,verb,lesson11
der Arbeitzimmer,workroom,noun,lesson11
auf sein,to be open,verb,lesson11
das Badezimmer,bathroom,noun,lesson11
der Balkon,balcony,noun,lesson11
besuchen,to visit,verb,lesson11
danach,afterwards,,lesson11
dunkel,dark,,lesson11
der Flur,corridor,noun,lesson11
geschlossen sein,to be closed,verb,lesson11
Liebe Grüsse,with love,phrase,lesson11
der Gruss,greeting,noun,lesson11
hart,hard,,lesson11
hell,light,,lesson11
das Kinderzimmer,children's room,noun,lesson11
die Küche,kitchen,noun,lesson11
laut,loud,,lesson11
Liebe,dear,,lesson11
die Matratze,mattress,noun,lesson11
offen sein,to be open,verb,lesson11
die Oma,grandma,noun,lesson11
das Schlafzimmer,bedroom,noun,lesson11
das Sofa,sofa,noun,lesson11
warten,to wait,verb,lesson11
weit,far,,lesson11
die Wohngemeinschaft,flat share,noun,lesson11
das Wohnzimmer,living room,noun,lesson11
das Zentrum,centre,noun,lesson11
zu sein,to be closed,verb,lesson11
das Angebot,offer,noun,lesson11
die Ankunft,arrival,noun,lesson11
das Erdgeschoss,ground floor,noun,lesson11
früher,earlier,,lesson11
zu Hause,at home,,lesson11
der Herd,stove,noun,lesson11
hinter,behind,,lesson11
liegen,to be located,verb,lesson11
neben,next to,,lesson11
das Regal,shelf,noun,lesson11
der Schlüssel,key,noun,lesson11
der Schrank,cupboard,noun,lesson11
stehen,to stand,verb,lesson11
der Teller,plate,noun,lesson11
die Wand,wall,noun,lesson11
draussen,outside,,lesson11
heiraten,to marry,verb,lesson11
das Leben,life,noun,lesson11
der Nachbar,neighbour,noun,lesson11
schwer,difficult,,lesson11
umziehen,to move house,verb,lesson11
zuerst,first of all,,lesson11

abnehmen,to lose weight,verb,lesson12
ein bisschen,a little,,lesson12
dick,fat,,lesson12
gesund,healthy,,lesson12
die Gesundheit,health,noun,lesson12
die Kleidung,clothing,noun,lesson12
der Körper,body,noun,lesson12
lachen,to laugh,verb,lesson12
das Öl,oil,noun,,lesson12
die Pommes,fries,noun,lesson12
rauchen,to smoke,verb,lesson12
der Spaziergang,to walk,verb,lesson12
vergessen,to forget,verb,lesson12
das Wetter,weather,noun,lesson12
der Arm,arm,noun,lesson12
das Auge,eye,noun,lesson12
der Bauch,abdomen,noun,lesson12
die Bauchschmerzen,stomach ache,noun,lesson12
das Bein,leg,noun,lesson12
Gute Besserung!,Get well soon!,phrase,lesson12
erkältet sein,to have a cold,verb,lesson12
fallen,to fall,verb,lesson12
das Fieber,fever,noun,lesson12
der Fuss,foot,noun,lesson12
das Gesicht,face,noun,lesson12
der Hals,neck,noun,lesson12
die Hand,hand,noun,lesson12
der Hund,dog,noun,lesson12
der Kopf,head,noun,lesson12
die Kopfschmerzen,headache,noun,lesson12
das Medikament,medicine,noun,lesson12
der Mund,mouth,noun,lesson12
die Nase,nose,noun,lesson12
das Ohr,ear,noun,lesson12
der Rücken,back,noun,lesson12
die Schulter,shoulder,noun,lesson12
die Tablette,pill,noun,lesson12
der Unfall,accident,noun,lesson12
wahrscheinlich,probably,,lesson12
wehtun,to hurt,,lesson12
der Zahn,tooth,noun,lesson12
die Zahnschmerzen,toothache,noun,lesson12
bekannt,well-known,,lesson12
da,there,,lesson12
deshalb,therefore,,lesson12
öffnen,to open,verb,lesson12
zahlen,to pay,verb,lesson12
hässlich,ugly,,lesson12
hoch,high,,lesson12
kalt,cold,,lesson12
der Kühlschrank,fridge,noun,lesson12
nah,nearby,,lesson12
niedrig,low,,lesson12
der Stock,floor,,lesson12

anstossen,to clink glasses,verb,lesson13
die Aufgabe,task,noun,lesson13
bekommen,to get,verb,lesson13
das Datum,date,noun,lesson13
der Feiertag,public holiday,noun,lesson13
das Fest,fair,noun,lesson13
das Feuerwerk,noun,lesson13
der Fotograf,photographer,noun,lesson13
freunlich,friendly,noun,lesson13
geben,to give,verb,lesson13
das Gespräch,conversation,noun,lesson13
die Hochzeit,wedding,noun,lesson13
der Junge,boy,noun,lesson13
der Karneval,carnival,noun,lesson13
das Kostüm,costume,noun,lesson13
der Kunde,customer,noun,lesson13
manche,some,,lesson13
schmücken,to decorate,verb,lesson13
das Silvester,New Year's Eve,noun,lesson13
tauschen,to swap,verb,lesson13
tragen,to wear clothes,verb,lesson13
verdienen,to earn,verb,lesson13
vorbereiten,to prepare,verb,lesson13
das Weihnachten,Christmas,noun,lesson13
die Weihnachtsmann,Father Christmas,noun,lesson13
die Anrede,salutation,noun,lesson13
die Antwort,answer,noun,lesson13
beginnen,to begin,verb,lesson13
bis zu,by,,lesson13
die Einweihungsparty,housewarming party,noun,lesson13
das Glück,luck,noun,lesson13
die Karte,card,noun,lesson13
der Kuss,kiss,noun,lesson13
das Mädchen,girl,noun,lesson13
die Pflanze,plant,noun,lesson13
die Sache,thing,noun,lesson13
das Salz,salt,noun,lesson13
schenken,to give a present,verb,lesson13
die Unterschrift,signature,noun,lesson13
zeigen,to show,verb,lesson13
der Besucher,visitor,noun,lesson13
das Ende,end,noun,lesson13
enden,to end,verb,lesson13
lang,long,,lesson13
singen,to sing,verb,lesson13
die Teilnehmer,participant,noun,lesson13

der Anzug,suit,noun,,lesson14
auf keinen Fall,absolutely not,phrase,lesson14
bewölkt,cloudy,,lesson14
die Bluse,blouse,noun,lesson14
die Dame,lady,noun,lesson14
das Grad,degree,noun,lesson14
der Handschuh,glove,noun,lesson14
das Hemd,shirt,noun,lesson14
der Mantel,coat,noun,lesson14
die Mütze,cap,noun,lesson14
nicht mehr,no longer,,lesson14
der Pullover,pullover,noun,lesson14
der Regen,rain,noun,lesson14
der Regenschirm,umbrella,noun,lesson14
regnen,to rain,verb,lesson14
der Rock,skirt,noun,lesson14
scheinen,to shine,verb,lesson14
schneien,to snow,verb,lesson14
die Sonne,sun,noun,lesson14
sonnig,sunny,,lesson14
der Stiefel,boot,noun,lesson14
der Wind,wind,noun,lesson14
windig,windy,,lesson14
die Wolke,cloud,,noun,lesson14
wunderbar,wonderful,,lesson14
anziehen,to put on,verb,lesson14
blau,blue,,lesson14
braun,brown,,lesson14
danken,to thank,verb,lesson14
die Disko,night club,noun,lesson14
dunkelgrün,dark green,,lesson14
die Farbe,color,noun,lesson14
gefallen,to appeal to,verb,lesson14
gehören,to belong to,verb,lesson14
gelb,yellow,,lesson14
grau,grey,,lesson14
grün,green,,lesson14
hellblau,light blue,,lesson14
Lieblingsarbe,favourite colour,,lesson14
lila,purple,,lesson14
orange,orange,,lesson14
passen,to fit,verb,lesson14
rosa,pink,,lesson14
rot,red,,lesson14
schmecken,to taste good,verb,lesson14
schwarz,black,,lesson14
stehen,to suit,verb,lesson14
weiss,white,,lesson14
zufrieden,satisfied,verb,lesson14
bedeuten,to mean,verb,lesson14
der Norden,the north,noun,lesson14
dorthin,there,,lesson14
erzählen,to recount,noun,lesson14
das Ostern,Easter,noun,lesson14

der Bahnhof,station,noun,lesson15
die Fussgängerzone,pedestrian zone,noun,lesson15
geradeaus,straight on,,lesson15
die Kreuzung,junction,noun,lesson15
der Platz,square,noun,lesson15
der Radweg,bicycle path,noun,lesson15
das Restaurant,restaurant,noun,lesson15
das Schild,sign,noun,lesson15
sollen,should,verb,lesson15
der Zebrastreifen,crosswalk,noun,lesson15
abfahren,to depart,verb,lesson15
die Anzeigetafel,destination board,noun,lesson15
bar,cash,,lesson15
dürfen,to be allowed to,verb,lesson15
die Fahrkarte,ticket,noun,lesson15
Gute Fahrt!,Have a good trip!,phrase,lesson15
das Gleis,platform,noun,lesson15
die Information,information,noun,lesson15
die Kreditkarte,credit card,noun,lesson15
der Müll,trash,noun,lesson15
die Raucherzone,smoking area,noun,lesson15
schade,pity,,lesson15
der Schalter,counter,,lesson15
verboten,forbidden,,lesson15
werfen,to throw,verb,lesson15
die Bitte,request,noun,lesson15
bremsen,to brake,noun,lesson15
kontrollieren,to check,verb,lesson15
die Polizei,police,noun,lesson15
Recht haben,to be right,verb,lesson15
schauen,to look,verb,lesson15
sicher,safe,,lesson15
der Spielplatz,playground,noun,lesson15

angeln,to fish,verb,lesson16
baden,to bathe,verb,lesson16
bald,soon,,lesson16
das Boot,boat,noun,lesson16
bummeln,to stroll around the town,,lesson16
das Dorf,village,noun,lesson16
die Dusche,shower,noun,lesson16
der Fluss,river,noun,lesson16
die Insel,island,noun,lesson16
die Kirche,church,noun,lesson16
das Meer,sea,noun,lesson16
mieten,to rent,verb,lesson16
der See,lake,noun,lesson16
segeln,to sail,verb,lesson16
der Strand,beach,noun,lesson16
tauchen,to dive,verb,lesson16
der Wald,forest,noun,lesson16
zelten,to camp,verb,lesson16
die Badewanne,bath,noun,lesson16
das Doppelzimmer,double room,noun,lesson16
das Einzelzimmer,single room,noun,lesson16
empfehlen,to recommend,verb,lesson16
der Fernseher,television,noun,lesson16
frei,free,,lesson16
die Heizung,heating,noun,lesson16
der Internetanschluss,internet connection,noun,lesson16
kaputt,broken,,lesson16
kostenlos,free,,lesson16
das Licht,light,noun,lesson16
mittwochs,Wednesdays,noun,lesson16
nass,wet,,lesson16
reparieren,to repair,verb,lesson16
die Rezeption,reception,noun,lesson16
schicken,to send,verb,lesson16
die Toilette,toilet,noun,lesson16
die Übernachtung,overnight stay,noun,lesson16
ähnlich,similar,,lesson16
das Ergebnis,result,noun,lesson16
die Ferien,holiday,noun,lesson16
der Manager,manager,noun,lesson16
reisen,to travel,verb,lesson16
die Rundreise,tour,noun,lesson16
der Unterschied,difference,noun,lesson16
ausmachen,to turn off,verb,lesson16
das Feuer,fire,noun,lesson16
gleich,shortly,noun,lesson16
leise,quiet,,lesson16
reservieren,to reserve,verb,lesson16
sauber,clean,,lesson16




















































